{
    title: 'Article schema',
    type: 'object',
    required: ['title', 'abstract', 'keywords', 'authors'],
    properties: {
        title: {
            type: 'string'
        },
        abstract: {
            type: 'string'
        },
        keywords: {
            type: 'array',
            minItems: 3,
            items: {
                type: 'string'
            }
        },
        authors: {
            type: 'array',
            minItems: 2,
            items: {
                type: 'object',
                required: ['fullName', 'institution', 'email']
            }
        }
    }
}