[
    {
        "name": "John Doe",
        "iban": "RO893427649328743297842",
        "balance": 500
        "currency": "RON"
    },
    {
        "name": "Jane Dane",
        "iban": "EUR8934276492118743297842",
        "balance": 800
        "currency": "EUR"
    }
]